[
  {
    "id": 1,
    "name": "Chinese omelet met roerbakgroenten",
    "desc": "en zoetzure tomatensaus met rijst",
    "image": true,
    "imageURL": "./assets/recept_001.png",
    "rating": 4,
    "friendly": 3,
    "difficulty": 4,
    "time": 30,
    "costs": 15,
    "ingredients": [
      {
        "name": "eieren",
        "amount": "4"
      },
      {
        "name": "maizena",
        "amount": "1 zakje"
      },
      {
        "name": "tomatenpassata",
        "amount": "1 pakje"
      },
      {
        "name": "verse groente mix (Chinese kool, paprika & tauge)",
        "amount": "1 zakje"
      },
      {
        "name": "knoflook",
        "amount": "1 teen"
      },
      {
        "name": "verse gember",
        "amount": "1 stukje"
      },
      {
        "name": "basmatirijst",
        "amount": "200gr"
      }
    ],
    "instructions": [
      {
        "step": 1,
        "shortDesc": "Groenten wokken",
        "desc": "Verhit 1 el olie in een grote koekenpan op hoog vuur en bak de helft van de knoflook en de helft van de gember 1min. Voeg dan de verse groentenmix toe en roerbak ca. 5min tot de groenten zijn geslonken. Voeg de helft van de sojasaus toe en roerbak nog 2min. Proef en breng de groenten op smaak met peper en zout. Schep de groenten in een kom en veeg de pan schoon."
      },
      {
        "step": 2,
        "shortDesc": "Saus starten",
        "desc": "Verhit 1 el olie in een kleine kookpan op middelhoog vuur en bak de rest van de knoflook en de gember 1-2min. Voeg de tomatenpassata, 100ml water, 1/4tl zout, 2el azijn (rijst of witte wijn) en 2el honing of suiker toe. Breng de saus aan kook en laat 4-5min pruttelen."
      },
      {
        "step": 3,
        "shortDesc": "Saus laten indikken",
        "desc": "Meng de maizena in een kommetje met 2-3el water en voeg het papje aan de sauspan toe. Kook 5-6min op matig vuur totdat de saus dik is. Proef en breng de saus op snmaak met zout, honing en/of azijn."
      },
      {
        "step": 4,
        "shortDesc": "Ei bakken",
        "desc": "Kluts de eieren in een kom los met de rest van de sojasaus. Verhit 1el plantaardige olie in de gebruikte pan en schenk de eieren erin. Bak 1 min en verdeel de groenten erover. Leg een deksel op de pan en bak de omelet 8-10min op middelaag-laag vuur tot het ei gestold is. Vouw het ei dubbel. Schep de rijst op en leg de omelet erbovenop. Schenk de saus erover."
      }
    ]
  },
  {
    "id": 2,
    "name": "Easy gnocchi met basilicum",
    "desc": "in snelle tomaten-roomssaus",
    "image": true,
    "imageURL": "./assets/recept_002.png",
    "rating": 4,
    "friendly": 4,
    "difficulty": 2,
    "time": 20,
    "costs": 15,
    "ingredients": [
      {
        "name": "italiaanse harde kaas",
        "amount": "1 blokje"
      },
      {
        "name": "creme fraiche",
        "amount": "1 beker"
      },
      {
        "name": "gnocchi",
        "amount": "1 pak"
      },
      {
        "name": "pijnboompitten",
        "amount": "1 zakje"
      },
      {
        "name": "tomatenpassata",
        "amount": "1 pakje"
      },
      {
        "name": "verse kruidenmix: basilicum & oregano",
        "amount": "15gr"
      },
      {
        "name": "knoflook",
        "amount": "1 teen"
      },
      {
        "name": "rode paprika",
        "amount": "1"
      },
      {
        "name": "champignon-plakjes",
        "amount": "1x"
      }
    ],
    "instructions": [
      {
        "step": 1,
        "shortDesc": "Groenten bakken",
        "desc": "Verhit 1 el olijfolie in een grote koekenpan of wok op middelhoog vuur en bak de champignonplakjes 3-4min tot ze het meeste water hebben losgelaten. Halveer de paprikam, verwijder de kern en snijd de paprika in blokjes. Voeg de paprika toe en bak 2-3min mee. Breng de groenten op smaak met peper en zout. Pel en hak of rasp de knoflook fijn."
      },
      {
        "step": 2,
        "shortDesc": "Kruiden hakken",
        "desc": "Pluk de basilicumblaadjes en hak de steeltjes fijn. Pluk de oreganoblaadjes en hak ze fijn, doe de steeltjes weg."
      },
      {
        "step": 3,
        "shortDesc": "Groenten stoven",
        "desc": "Voeg de tomatenpassata met 150ml water, de knoflook, basilicumsteeltjes en gehakte oregano aan de pan met groenten toe en breng het geheel aan de kook. Leg evt. een deksel op de pan en stoof de groenten 8-10min tot ze gaat en zacht zijn. Voeg evt. meer water toe als de saus te dik wordt."
      },
      {
        "step": 4,
        "shortDesc": "Pijnboompitten roosteren",
        "desc": "Verhit een droge, grote koekenpan op middelhoog vuur en rooster de pijnboompitten in 1-2min goudbruin. Let op, ze kunnen snel verbranden! Neem uit de pan en zet ze apart."
      },
      {
        "step": 5,
        "shortDesc": "Gnocchi bakken",
        "desc": "Verhit 2el olijfolie in de gebruikte koekenpan op middelhoog vuur en bak de gnocchi met een snijf zou 8-10min tot ze rondom goudbruin zijn. Breng de gnocchi op smaak met zout en peper. Rasp intussen de kaas fijn."
      },
      {
        "step": 6,
        "shortDesc": "Roomsaus maken",
        "desc": "Verscheur de basilicumblaadjes. Roer de creme fraiche en de helft van de basilicumblaadjes door de tomatensaus. Warm in 1min op en breng de saus op smaak met zout en peper. Schep de gnocchi op en verdeel de saus erover. Bestrooi met de pijnboompitten, geraspte kaas en de rest van de basilicum."
      }
    ]
  }
]
